{
  "images" : [
    {
      "idiom" : "universal",
      "scale" : "1x",
      "filename" : "coin_mex_libertad_0.5oz.png"
    },
    {
      "idiom" : "universal",
      "scale" : "2x",
      "filename" : "coin_mex_libertad_0.5oz@2x.png"
    },
    {
      "idiom" : "universal",
      "scale" : "3x",
      "filename" : "coin_mex_libertad_0.5oz@3x.png"
    }
  ],
  "info" : {
    "version" : 1,
    "author" : "xcode"
  }
}